<?xml version="1.0" encoding="UTF-8" standalone="no"?>
<!-- Created with Inkscape (http://www.inkscape.org/) -->

<svg
   xmlns:dc="http://purl.org/dc/elements/1.1/"
   xmlns:cc="http://creativecommons.org/ns#"
   xmlns:rdf="http://www.w3.org/1999/02/22-rdf-syntax-ns#"
   xmlns:svg="http://www.w3.org/2000/svg"
   xmlns="http://www.w3.org/2000/svg"
   xmlns:sodipodi="http://sodipodi.sourceforge.net/DTD/sodipodi-0.dtd"
   xmlns:inkscape="http://www.inkscape.org/namespaces/inkscape"
   width="744.09448819"
   height="1052.3622047"
   id="svg2"
   version="1.1"
   inkscape:version="0.48.5 r10040"
   sodipodi:docname="New document 1">
  <defs
     id="defs4" />
  <sodipodi:namedview
     id="base"
     pagecolor="#ffffff"
     bordercolor="#666666"
     borderopacity="1.0"
     inkscape:pageopacity="0.0"
     inkscape:pageshadow="2"
     inkscape:zoom="1.979899"
     inkscape:cx="112.25814"
     inkscape:cy="-15.961614"
     inkscape:document-units="px"
     inkscape:current-layer="layer1"
     showgrid="false"
     inkscape:window-width="1097"
     inkscape:window-height="656"
     inkscape:window-x="257"
     inkscape:window-y="101"
     inkscape:window-maximized="0" />
  <metadata
     id="metadata7">
    <rdf:RDF>
      <cc:Work
         rdf:about="">
        <dc:format>image/svg+xml</dc:format>
        <dc:type
           rdf:resource="http://purl.org/dc/dcmitype/StillImage" />
        <dc:title></dc:title>
      </cc:Work>
    </rdf:RDF>
  </metadata>
  <g
     inkscape:label="Layer 1"
     inkscape:groupmode="layer"
     id="layer1">
    <rect
       style="fill:#000000;fill-opacity:1;stroke:none"
       id="rect2985"
       width="94.436653"
       height="94.436653"
       x="0"
       y="957.92554" />
    <rect
       style="fill:#ffffff;fill-opacity:1;stroke:none"
       id="rect2985-3"
       width="10"
       height="10"
       x="10"
       y="1032.3622" />
    <rect
       style="fill:#ffffff;fill-opacity:1;stroke:none"
       id="rect2985-3-6"
       width="10"
       height="10"
       x="50"
       y="992.36218" />
    <rect
       style="fill:#ffffff;fill-opacity:1;stroke:none"
       id="rect2985-3-6-7"
       width="10"
       height="10"
       x="60"
       y="982.36218" />
    <rect
       style="fill:#ffffff;fill-opacity:1;stroke:none"
       id="rect2985-3-5"
       width="10"
       height="10"
       x="70"
       y="1032.3622" />
    <rect
       style="fill:#ffffff;fill-opacity:1;stroke:none"
       id="rect2985-3-3"
       width="10"
       height="10"
       x="10"
       y="972.36218" />
    <rect
       style="fill:#ffffff;fill-opacity:1;stroke:none"
       id="rect2985-3-3-5"
       width="10"
       height="10"
       x="10"
       y="982.36218" />
    <rect
       style="fill:#ffffff;fill-opacity:1;stroke:none"
       id="rect2985-3-5-6"
       width="10"
       height="10"
       x="60"
       y="1032.3622" />
  </g>
</svg>
